<svg id="settings-24px_1_" data-name="settings-24px (1)" xmlns="http://www.w3.org/2000/svg" width="24" height="24" viewBox="0 0 24 24">
  <path id="Path_159" data-name="Path 159" d="M0,0H24V24H0Z" fill="none"/>
  <path id="Union_4" data-name="Union 4" d="M2.856,16.644A9.75,9.75,0,1,1,16.645,2.856,9.75,9.75,0,1,1,2.856,16.644ZM9.75,18a8.21,8.21,0,0,0,3.823-.934l-2.909-2.909a4.522,4.522,0,0,1-1.829,0L5.927,17.065A8.211,8.211,0,0,0,9.75,18Zm5.109-1.771a8.378,8.378,0,0,0,1.983-2.258l-2.817-2.817a4.523,4.523,0,0,1-1.855,2.387ZM3.917,15.584a8.392,8.392,0,0,0,.725.646l2.687-2.688a4.523,4.523,0,0,1-1.854-2.387L2.658,13.971A8.309,8.309,0,0,0,3.917,15.584ZM9.75,12.75a2.983,2.983,0,0,0,1.307-.3l.011-.011,0,0a3,3,0,0,0,0-5.386l0,0h0l-.009-.009a3,3,0,0,0-2.617,0l-.009.009,0,0a3,3,0,0,0,0,5.385l0,0,.011.011A2.982,2.982,0,0,0,9.75,12.75Zm4.992-3,2.78,2.78a8.327,8.327,0,0,0,0-5.561ZM1.5,9.75a8.254,8.254,0,0,0,.478,2.779L4.757,9.75,1.978,6.971A8.258,8.258,0,0,0,1.5,9.75Zm12.525-1.4,2.817-2.817a8.3,8.3,0,0,0-1.258-1.612,8.4,8.4,0,0,0-.726-.646L12.17,5.958A4.522,4.522,0,0,1,14.025,8.345Zm-8.551,0A4.523,4.523,0,0,1,7.329,5.958L4.642,3.27a8.394,8.394,0,0,0-.725.646A8.3,8.3,0,0,0,2.659,5.529Zm3.361-3a4.522,4.522,0,0,1,1.827,0l2.909-2.909a8.286,8.286,0,0,0-7.645,0Z" transform="translate(2.25 2.25)" fill="#fff"/>
</svg>
